"Internal Failure","Error Caused","Probability Value","Probability Threshold","Hazard Level","Component Name","Component Type","Propogation Path","Error Type Propogation","Mitigated by Safety Constraint","Mitigated in Component Name","Mitigated by Component Type"
"INTF1: something bad happened","SensorError{Measured_Varibale_S}","0.02","Probable","Critical","sensor.impl","S","sensor.impl->controller.impl","SensorError{Measured_Varibale_S(Critical,p=0.02)}","SC2: handling error from sensor","controller.impl","C"
"INTF2: something bad happened","ControllerError{Control_Action_C}","0.04","Probable","Marginal","controller.impl","C","controller.impl->actuator.impl","ControllerError{Control_Action_C(Marginal,p=0.04)}","SC3: handle error comes from the controller","actuator.impl","A"
"INTF3: something bad happened","ActuatorError{Manipulated_Variable_A}","0.2","Frequent","Catastrophic","actuator.impl","A","actuator.impl","ActuatorError{Manipulated_Variable_A(Catastrophic,p=0.2)}","SC4: prevent error of the actuator itself to out","actuator.impl","A"
